{
  "name": "fewicons",
  "css_prefix_text": "icon-",
  "css_use_suffix": false,
  "hinting": true,
  "units_per_em": 1000,
  "ascent": 850,
  "glyphs": [
    {
      "uid": "bfb4e549cb957edc99742fc8894c7a8a",
      "css": "mushrooms",
      "code": 59392,
      "src": "custom_icons",
      "selected": true,
      "svg": {
        "path": "M500 529.1C468.9 529.1 427.1 551.2 386.5 572.7 383.4 574.2 380.3 576 377.3 577.5 371.9 605.3 364.3 635.2 356.6 664.8 329.7 769.3 301.8 877.1 354.1 944.5 383 981.8 430.9 1000.2 500.2 1000.2S617.2 982 646.3 944.5C698.4 877.1 670.7 769.1 643.8 664.8 636.1 635.4 628.3 605.5 623 577.5 619.9 576 616.8 574.2 613.9 572.7 572.9 551.2 531.1 529.1 500 529.1L500 529.1ZM730.3 70.7C663.1 23.8 585.5 0 500 0S336.9 23.8 269.7 70.7C212.3 110.7 164.6 166.4 132.2 231.8 78.9 339.3 75.4 454.1 123.6 517.6 149.8 552.1 182.6 569.5 221.3 569.5 228.3 569.5 235.4 568.9 242.8 567.8 281.1 561.9 319.1 541.8 359.4 520.5 406.3 495.7 454.7 470.3 500.2 470.3S594.1 495.9 641 520.5C681.3 541.8 719.3 561.9 757.6 567.8 765 568.9 772.1 569.5 779.1 569.5 817.6 569.5 850.4 552.1 876.8 517.6 925 454.1 921.5 339.3 868.2 231.6 835.4 166.4 787.9 110.7 730.3 70.7L730.3 70.7Z",
        "width": 1000
      },
      "search": [
        "mushrooms"
      ]
    },
    {
      "uid": "9dd9e835aebe1060ba7190ad2b2ed951",
      "css": "search",
      "code": 59393,
      "src": "fontawesome"
    },
    {
      "uid": "d870630ff8f81e6de3958ecaeac532f2",
      "css": "left-open",
      "code": 59394,
      "src": "fontawesome"
    },
    {
      "uid": "399ef63b1e23ab1b761dfbb5591fa4da",
      "css": "right-open",
      "code": 59395,
      "src": "fontawesome"
    },
    {
      "uid": "fe6697b391355dec12f3d86d6d490397",
      "css": "up-open",
      "code": 59396,
      "src": "fontawesome"
    },
    {
      "uid": "ccddff8e8670dcd130e3cb55fdfc2fd0",
      "css": "down-open",
      "code": 59397,
      "src": "fontawesome"
    },
    {
      "uid": "5daac230ad1cfdf4782697dfbda679dd",
      "css": "star",
      "code": 59398,
      "src": "iconic"
    },
    {
      "uid": "jwebw8rhtovm6adljbdixtj9ltdrzkvb",
      "css": "thumbs-up",
      "code": 59399,
      "src": "modernpics"
    },
    {
      "uid": "h9yii6q602rt4dxjmy9k9wc3jkwzk8d0",
      "css": "thumbs-down",
      "code": 59400,
      "src": "modernpics"
    }
  ]
}