{
  "project_info": {
    "project_number": "219865068961",
    "firebase_url": "https://react-native-apps-c19d8.firebaseio.com",
    "project_id": "react-native-apps-c19d8",
    "storage_bucket": "react-native-apps-c19d8.appspot.com",
    "databaseURL": "https://react-native-apps-c19d8.firebaseio.com/"
  },
  "client": [
    {
      "client_info": {
        "mobilesdk_app_id": "1:219865068961:android:8e6c53caea568ff7ec87e0",
        "android_client_info": {
          "package_name": "com.sieniapp"
        }
      },
      "oauth_client": [
        {
          "client_id": "219865068961-pc0j1jtes57i2hv5hdglnvb1coukg03s.apps.googleusercontent.com",
          "client_type": 1,
          "android_info": {
            "package_name": "com.sieniapp",
            "certificate_hash": "5e8f16062ea3cd2c4a0d547876baa6f38cabf625"
          }
        },
        {
          "client_id": "219865068961-s4buasut0hjtr9n1n76g2mgon3jb33kh.apps.googleusercontent.com",
          "client_type": 3
        }
      ],
      "api_key": [
        {
          "current_key": "AIzaSyDxaFJCOZLPxOKgAQOSkTLHFlR_SZWC4sk"
        }
      ],
      "services": {
        "appinvite_service": {
          "other_platform_oauth_client": [
            {
              "client_id": "219865068961-s4buasut0hjtr9n1n76g2mgon3jb33kh.apps.googleusercontent.com",
              "client_type": 3
            }
          ]
        }
      }
    }
  ],
  "configuration_version": "1"
}